{
    "mirrors": {
        "cn": "Эх газрын Хятад",
        "de": "Герман",
        "se": "Швед",
        "tw": "Тайвань",
        "ua": "Украин"
    },
    "permissions": {
        "permdesc_acceptHandovers": "Аппад өөр аппад эхлүүлсэн дуудлагыг үргэлжлүүлэхийг зөвшөөрдөг.",
        "permdesc_accessBackgroundLocation": "Энэ апп нь дурын үед, түүнийг ашиглаагүй байх үед ч байршилд хандах боломжтой.",
        "permdesc_accessCoarseLocation": "Энэ апп нь түүнийг ашиглах үед байршлын үйлчилгээнээс таны байршлыг ойролцоогоор тогтоох боломжтой. Аппад байршлыг тогтоохын тулд таны төхөөрөмжийн байршлын үйлчилгээг асаасан байх ёстой.",
        "permdesc_accessDrmCertificates": "Аппликейшнд DRM сертификатыг ашиглах болон нийлүүлэхийг зөвшөөрнө. Энгийн апп-уудад хэзээ ч ашиглагдахгүй.",
        "permdesc_accessFineLocation": "Энэ апп нь түүнийг ашиглах үед байршлын үйлчилгээнээс таны нарийвчилсан байршлыг тогтоох боломжтой. Аппад байршлыг тогтоохын тулд таны төхөөрөмжийн байршлын үйлчилгээг асаасан байх ёстой. Энэ нь батарей ашиглалтыг нэмэгдүүлж болзошгүй.",
        "permdesc_accessImsCallService": "Апп нь дуудлага хийхдээ таны оролцоогүйгээр IMS үйлчилгээг ашиглах боломжтой.",
        "permdesc_accessLocationExtraCommands": "Апп нь байршил нийлүүлэгчийн нэмэлт тушаалд хандах боломжтой. Энэ нь апп-д GPS эсвэл бусад байршлын үйлчилгээний ажиллагаанд нөлөөлөх боломжийг олгоно.",
        "permdesc_accessNetworkConditions": "Аппликейшнд сүлжээний байдлын талаар ажиглалтуудыг хүлээн авахыг зөвшөөрнө. Энгийн апп-уудад хэзээ ч ашиглагдахгүй.",
        "permdesc_accessNetworkState": "Апп нь сүлжээ байгаа болон холбогдсон эсэх зэрэг сүлжээний холболтын талаарх мэдээллийг харах боломжтой.",
        "permdesc_accessNotifications": "Апп нь бусад апп-уудын илгээсэн мэдэгдлүүдийг дуудах, шалгах, болон цэвэрлэх боломжтой.",
        "permdesc_accessWifiState": "Апп нь Wi-Fi идэвхтэй эсэх болон холбогдсон Wi-Fi төхөөрөмжийн нэр зэрэг Wi-Fi сүлжээний талаарх мэдээллийг харах боломжтой.",
        "permdesc_accessWimaxState": "Апп нь WiMAX идэвхтэй эсэх болон холбогдсон WiMAX сүлжээний талаар мэдээллийг тодорхойлох боломжтой.",
        "permdesc_access_notification_policy": "Апп-д Бүү саад бол тохируулгыг уншиж, бичихийг зөвшөөрөх",
        "permdesc_activityRecognition": "Энэ апп таны биеийн дасгал хөдөлгөөнийг таних боломжтой.",
        "permdesc_addVoicemail": "Таны дуут шуудангийн ирсэн мэйлд зурвас нэмэхийг апп-д зөвшөөрөх.",
        "permdesc_answerPhoneCalls": "Ирж буй утасны дуудлагад хариулах зөвшөөрлийг апп-д олгодог.",
        "permdesc_audioWrite": "Таны хөгжмийн цуглуулгыг тохируулах зөвшөөрлийг аппад олгодог.",
        "permdesc_backgroundCamera": "Энэ апп ямар ч үед камер ашиглан зураг авж, видео бичих боломжтой.",
        "permdesc_bindCarrierMessagingService": "Эзэмшигчид зөөгч зурвасын үйлчилгээний түвшний интерфэйст холбогдохыг зөвшөөрдөг. Энгийн апп-д шаардлагагүй.",
        "permdesc_bindCarrierServices": "Аливаа эзэмшигчийг үүрэн холбооны үйлчилгээ үзүүлэгчтэй холбодог. Энгийн аппд шаардлагагүй.",
        "permdesc_bindCellBroadcastService": "Гар утсанд масс мессеж түгээх онцлогийн мессежийг хүлээн авах үед түүнийг шилжүүлэх зорилгоор аппад гар утсанд масс мессеж түгээх модультай холбогдохыг зөвшөөрөх Гар утсанд масс мессеж түгээх онцлогийн сэрэмжлүүлэг нь онцгой нөхцөл байдлын тухай танд анхааруулахын тулд зарим байршилд хүрдэг. Гар утсанд масс мессеж түгээх онцлогийн илгээх онцгой нөхцөл байдлын тухай мессежийг хүлээн авах үед хортой апп таны төхөөрөмжийн гүйцэтгэл эсвэл ажиллагаанд саад учруулж болзошгүй.",
        "permdesc_bindConditionProviderService": "Эзэмшигчид нөхцөл нийлүүлэгч үйлчилгээний дээд-түвшний интерфейстэй холбох боломж олгоно. Энгийн апп-уудад хэзээ ч ашиглагдахгүй.",
        "permdesc_bindDreamService": "Эзэмшигч нь дрийм үйлчилгээний дээд-төвшиний интерфейстэй холбох боломжтой. Энгийн апп-д шаардлагагүй.",
        "permdesc_bindNotificationListenerService": "Эзэмшигч нь мэдэгдэл сонсох үйлчилгээний дээд-төвшиний интерфейстэй холбох боломжтой. Энгийн апп-д шаардлагагүй.",
        "permdesc_bind_connection_service": "Апп-д телефон үйлчилгээтэй харилцаж дуудлага хийх/авахыг зөвшөөрнө.",
        "permdesc_bind_incall_service": "Апп-д дуудлагын дэлгэцийг хэрэглэгчид хэзээ хэрхэн харуулахыг удирдахыг зөвшөөрнө.",
        "permdesc_bluetooth": "Апп нь таблет дээрх блютүүт тохиргоог харах боломжтой ба хос болох төхөөрөмжтэй холболтыг зөвшөөрөх болон хийх боломжтой.",
        "permdesc_bluetoothAdmin": "Апп нь дотоод блютүүт таблетын тохиргоог харах боломжтой ба хос болох төхөөрөмжтэй холболтыг зөвшөөрөх болон хийх боломжтой",
        "permdesc_bluetooth_advertise": "Аппад ойролцоох Bluetooth төхөөрөмжүүдэд сурталчлахыг зөвшөөрнө",
        "permdesc_bluetooth_connect": "Аппыг хослуулсан Bluetooth төхөөрөмжүүдэд холбогдохыг зөвшөөрдөг",
        "permdesc_bluetooth_scan": "Aппыг ойролцоох Bluetooth төхөөрөмжүүдийг илрүүлж, хослуулахыг зөвшөөрдөг",
        "permdesc_bodySensors": "Апп-т таны зүрхний цохилт гэх мэт биеийн байдлыг хянадаг мэдрэгчдийн датанд хандалт хийх боломж олгоно.",
        "permdesc_bodySensors_background": "Апп ард нь байх үед зүрхний хэм, температур, цусны хүчилтөрөгчийн хувь зэрэг биеийн мэдрэгчийн өгөгдөлд хандах боломжтой.",
        "permdesc_broadcastSticky": "Апп нь өргөн дамжуулал дууссаны дараа үлдсэн өргөн дамжуулалыг илгээх боломжтой. Ихээр ашиглах нь хэт их санах ой ашиглан таблетыг удаашруулах болон тогтворгүй болгох боломжтой.",
        "permdesc_callCompanionApp": "Аппад төхөөрөмж дээр хийж буй дуудлагыг харах болон хянахыг зөвшөөрдөг. Үүнд дуудлагын дугаар болон дуудлагын төлөв зэрэг мэдээллийг агуулдаг.",
        "permdesc_callPhone": "Апп нь таны оролцоогүйгээр дуудлага хийх боломжтой. Энэ нь төлөвлөгдөөгүй төлбөрт оруулах эсвэл дуудлага хийнэ. Энэ нь апп-г яаралтай дугаарт дуудлага хийхйг зөвшөөрөхгүй. Хортой апп нь таны зөвшөөрөлгүйгээр дуудлага хийж таныг төлбөрт оруулж болзошгүй",
        "permdesc_camera": "Энэ аппыг ашиглаж байх үед энэ нь камер ашиглан зураг авж, видео бичих боломжтой.",
        "permdesc_cameraOpenCloseListener": "Энэ апп нь дурын камерын төхөөрөмжийг нээх (ямар аппликэйшнээр болох) эсвэл хаах үед буцааж залгасан дуудлага хүлээн авах боломжтой.",
        "permdesc_changeNetworkState": "Апп нь сүлжээний холболтын статусыг солих боломжтой.",
        "permdesc_changeTetherState": "Апп нь холбогдсон сүлжээний холболтын статусыг солих боломжтой.",
        "permdesc_changeWifiMulticastState": "Апп нь олон дамжуулал ашиглан Wi-Fi сүлжээн дэх бүх төхөөрөмжрүү пакет илгээх болон хүлээн авах боломжтой. Энэ нь олон дамжуулал ашиглахгүй горимоос илүү их тэжээл зарцуулна.",
        "permdesc_changeWifiState": "Апп нь Wi-Fi холболтын цэгтэй холбогдох буюу салах боломжтой ба тохируулсан Wi-Fi сүлжээнд өөрчлөлт хийх боломжтой.",
        "permdesc_changeWimaxState": "Апп нь WiMAX сүлжээнд таблетыг холбох болон салгах боломжтой.",
        "permdesc_connection_manager": "Апп-д телеком холболтуудыг удирдахыг зөвшөөрнө.",
        "permdesc_control_incall_experience": "Апп-д дуудлага хийж байгаа хэрэглэгчтэй харьцахыг зөвшөөрнө.",
        "permdesc_createNetworkSockets": "Апп нь сүлжээний сокетыг үүсгэх болон тусгай сүлжээний протокол ашиглах боломжтой. Хөтөч болон бусад аппликешнүүд Интернетээр дата илгээх боломжтой тул энэ зөвшөөрөл нь Интернетээр дата илгээхэд шаардлагагүй.",
        "permdesc_disableKeyguard": "Апп нь түгжээ болон бусад холбоотой нууц үгийн аюулгүй байдлыг идэвхгүй болгох боломжтой. Жишээ нь бол утас нь дуудлага ирэх үед түгжээг идэвхгүй болгох ба дуудлага дуусахад буцаан идэвхтэй болгодог.",
        "permdesc_enableCarMode": "Апп нь машины горимыг идэвхжүүлэх боломжтой.",
        "permdesc_exemptFromAudioRecordRestrictions": "Аудио бичихийн тулд аппыг хязгаарлалтаас гаргана уу.",
        "permdesc_expandStatusBar": "Апп нь статус самбарыг дэлгэх болон хаах боломжтой.",
        "permdesc_foregroundService": "Аппад интерактив (foreground) үйлчилгээг ашиглахыг зөвшөөрнө үү.",
        "permdesc_fullScreenIntent": "Аппад мэдэгдлийг түгжигдсэн төхөөрөмж дээр бүтэн дэлгэцийн үйл ажиллагаа байдлаар үзүүлэхийг зөвшөөрдөг",
        "permdesc_getAccounts": "Апп нь таблетэд мэдэгдэж байгаа бүртгэлийн жагсаалтыг авах боломжтой. Энд таны суулгасан аппликейшнүүдийг үүсгэсэн бүх акаунтууд хамрагдана.",
        "permdesc_getPackageSize": "Апп нь өөрийн код, дата болон кеш хэмжээг унших боломжтой",
        "permdesc_getTasks": "Апп нь одоо ажиллаж байгаа болон сүүлд ажилласан даалгаврын талаарх мэдээллийг авах боломжтой. Ингэснээр апп нь төхөөмж дээрх ямар аппликешнүүд ашиглагдсан талаарх мэдээлийг олох боломжтой.",
        "permdesc_handoverStatus": "Одоогийн Андройд Бийм дамжуулалтын мэдээллийг хүлээн авахыг аппликейшнд зөвшөөрөх",
        "permdesc_highSamplingRateSensors": "Аппад 200 Гц-ээс их хувиар мэдрэгчийн өгөгдлийг түүвэрлэх боломжийг олгодог",
        "permdesc_imagesWrite": "Таны зургийн цуглуулгыг тохируулах зөвшөөрлийг аппад олгодог.",
        "permdesc_install_shortcut": "Аппликейшн нь хэрэглэгчийн оролцоогүйгээр Нүүр дэлгэцний товчлолыг нэмж чадна.",
        "permdesc_invokeCarrierSetup": "Эзэмшигчид үүрэн компанийн нийлүүлсэн тохируулах апп-г өдөөх боломж олгоно. Энгийн апп-уудад хэзээ ч ашиглагдахгүй.",
        "permdesc_killBackgroundProcesses": "Апп нь бусад апп-н арын процессыг дуусгах боломжтой. Энэ бусад апп-г зогсоох боломжийг олгоно.",
        "permdesc_manageFace": "Аппад царайны загварыг ашиглахын тулд нэмэх эсвэл устгах аргыг идэвхжүүлэхийг зөвшөөрдөг.",
        "permdesc_manageFingerprint": "Хурууны хээний загвар нэмэх эсвэл устгах үйлдэл хийх зөвшөөрлийг аппд олгодог.",
        "permdesc_manageNetworkPolicy": "Апп нь сүлжээний бодлогыг удирдах болон апп-д зориулсан дүрмийг тогтоох боломжтой.",
        "permdesc_manageOngoingCalls": "Аппад таны төхөөрөмж дээрх үргэлжилж буй дуудлагын талаарх дэлгэрэнгүйг харах болон эдгээр дуудлагыг хянахыг зөвшөөрнө.",
        "permdesc_manageOwnCalls": "Дуудлагыг сайжруулахын тулд дуудлагаа системээр дамжуулах зөвшөөрлийг апп-д олгодог.",
        "permdesc_manageProfileAndDeviceOwners": "Аппликейшнд профайл болон төхөөрөмж эзэмшигчийг сонгохыг зөвшөөрөх",
        "permdesc_mediaLocation": "Таны медиа цуглуулгаас байршлыг унших зөвшөөрлийг аппад олгодог.",
        "permdesc_modifyAudioSettings": "Апп нь дууны хэмжээ, спикерын гаралтад ашиглагдах глобал аудио тохиргоог өөрчлөх боломжтой.",
        "permdesc_modifyNetworkAccounting": "Апп нь апп-уудын сүлжээ ашиглалтын талаарх тооцоог өөрчлөх боломжтой. Энгийн апп-д ашиглагдахгүй.",
        "permdesc_nearby_wifi_devices": "Аппад ойролцоох Wi-Fi төхөөрөмжүүдтэй холбоотой байрлалыг мэдэгдэх, холбох, тодорхойлохыг зөвшөөрнө",
        "permdesc_nfc": "Апп нь Ойролцоо Талбарын Холболт(NFC) таг, карт, болон уншигчтай холбогдох боломжтой.",
        "permdesc_persistentActivity": "Апп нь өөрийн хэсгийн санах ойд байнга байлгах боломжтой. Энэ нь бусад апп-уудын ашиглах санах ойг хязгаарлан таблетыг удаашруулах болно.",
        "permdesc_postNotification": "Аппад мэдэгдэл харуулахыг зөвшөөрнө",
        "permdesc_preferredPaymentInfo": "Бүртгүүлсэн төхөөрөмж болон маршрутын хүрэх цэг зэрэг сонгосон nfc төлбөрийн үйлчилгээний мэдээллийг авахыг аппад зөвшөөрдөг.",
        "permdesc_processOutgoingCalls": "Гадагш дуудлага хийх үед залгасан дугаарыг харах, дуудлагыг өөр дугаар руу шилжүүлэх, таслах боломжтой болгоно.",
        "permdesc_queryAllPackages": "Аппап бүх суулгасан багцыг харахыг зөвшөөрнө.",
        "permdesc_readBasicPhoneState": "Аппад төхөөрөмжийн утасны үндсэн онцлогт хандах боломжийг олгоно.",
        "permdesc_readCalendar": "Энэ апп таны таблетад хадгалсан хуанлийн бүх арга хэмжээг унших, хуанлийн өгөгдлийг хуваалцах, хадгалах боломжтой.",
        "permdesc_readCallLog": "Энэ апп таны дуудлагын түүхийг унших боломжтой.",
        "permdesc_readCellBroadcasts": "Апп нь таны төхөөрөмжийн хүлээн авсан үүрэн өргөн дамжуулах мессежийг унших боломжтой. Үүрэн өргөн дамжууллын мэдэгдэл нь яаралтай нөхцөл байдлыг анхааруулах зорилгоор зарим байршлуудад хүрдэг. Хортой апп нь яаралтай үүрэн өргөн дамжууллыг хүлээн авсан үед таны төхөөрөмжийн ажиллагаа болон чадамжид нөлөөлөх боломжтой.",
        "permdesc_readContacts": "Аппaд таны утсан дээр хадгалагдсан харилцагчдын өгөгдлийг уншихыг зөвшөөрнө. Мөн аппууд нь таны утсан дээрх харилцагч үүсгэсэн бүртгэлд хандах боломжтой байна. Үүнд таны суулгасан аппуудын үүсгэсэн бүртгэлийг оролцуулж болзошгүй. Энэ зөвшөөрөл нь аппуудад таны харилцагчийн өгөгдлийг хадгалахыг зөвшөөрөх бөгөөд хортой аппууд нь танд мэдэгдэлгүйгээр харилцагчийн өгөгдлийг хуваалцаж болзошгүй.",
        "permdesc_readHistoryBookmarks": "Апп нь Хөтчийн зочилж байсан бүх URL-н түүх болон Хөтчийн бүх хавчуургыг унших боломжтой. Анхаар: Энэ зөвшөөрөл нь гуравдагч талын хөтөч эсвэл вебээр хөтөчлөх чадавхтай аппликейшнүүдэд ашиглагдахгүй байх боломжтой.",
        "permdesc_readInstallSessions": "Аппликейшн-д суулгах сешн уншихыг зөвшөөрнө. Энэ нь идэвхтэй багцуудыг суулгалтын талаар дэлгэрэнгүй мэдээллийг үзэх боломж олгоно.",
        "permdesc_readMediaAudio": "Аппад таны дундын хадгалах сангаас аудио файлыг унших боломжийг олгодог.",
        "permdesc_readMediaImages": "Аппад таны дундын хадгалах сангаас зургийн файлыг унших зөвшөөрөл олгодог.",
        "permdesc_readMediaVideo": "Аппад таны дундын хадгалах сангаас видео файлыг унших боломжийг олгодог.",
        "permdesc_readNetworkUsageHistory": "Апп нь тусгай сүлжээ болон апп-н сүлжээ ашиглалтын түүхийг унших боломжтой.",
        "permdesc_readPhoneNumbers": "Төхөөрөмжийн утасны дугаарт хандах зөвшөөрлийг апп-д олгоно.",
        "permdesc_readPhoneState": "Апп нь төхөөрөмжийн утасны функцд хандах боломжтой. Энэ зөвшөөрөл нь апп-д утасны дугаар болон төхөөрөмжийн ID-г, дуудлага идэвхтэй эсэх, холын дугаар дуудлагаар холбогдсон байгаа эсэхийг тогтоох боломжийг олгоно,",
        "permdesc_readSms": "Энэ апп таны таблетад хадгалсан бүх SMS (текст) зурвасыг унших боломжтой.",
        "permdesc_readSyncSettings": "Апп нь бүртгэлийн синк тохиргоог унших боломжтой. Жишээ нь энэ нь Хүмүүс апп бүртгэлтэй синк хийгдсэн эсэхийг тодорхойлох боломжтой.",
        "permdesc_readSyncStats": "Апп нь синк үйлдэлийн түүх болон хэр их дата синк хийгдсэн зэрэг бүртгэлийн синк статусыг унших боломжтой.",
        "permdesc_receiveBootCompleted": "Апп нь систем асаж дуусахад шууд өөрийгөө асаах боломжтой. Ингэснээр таблетыг асахад их хугацаа орох болон байнга ажилладаг апп нь таблетийг бүхэлд нь удаашруулах боломжтой.",
        "permdesc_receiveMms": "Апп нь MMS мессежийг хүлээн авах болон гүйцэтгэх боломжтой. Ингэснээр апп нь таны төхөөрөмжрүү илгээсэн мессежийг танд үзүүлэхгүйгээр хянах болон устгаж чадна.",
        "permdesc_receiveSms": "Апп нь SMS мессежийг хүлээн авах болон гүйцэтгэх боломжтой. Ингэснээр апп нь таны төхөөрөмжрүү илгээсэн мессежийг танд үзүүлэхгүйгээр хянах болон устгаж чадна.",
        "permdesc_receiveWapPush": "Апп нь WAP мессежийг хүлээн авах болон биелүүлэх боломжтой. Энэ зөвшөөрөл нь танд илгээсэн мессежийг танд харуулалгүйгээр хянах эсвэл устгах боломжийг агуулна.",
        "permdesc_recordAudio": "Энэ аппыг ашиглаж байх үед энэ нь микрофон ашиглан аудио бичих боломжтой.",
        "permdesc_recordBackgroundAudio": "Энэ апп ямар ч үед микрофон ашиглан аудио бичих боломжтой.",
        "permdesc_register_call_provider": "Апп-д шинэ телеком холболтуудыг бүртгэхийг зөвшөөрнө.",
        "permdesc_register_sim_subscription": "Апп-д шинэ телеком SIM холболтуудыг бүртгэхийг зөвшөөрнө.",
        "permdesc_removeDrmCertificates": "Аппликейшнд DRM сертификатыг устгахыг зөвшөөрнө. Энгийн апп-уудад хэзээ ч ашиглагдахгүй.",
        "permdesc_reorderTasks": "Апп нь даалгавруудыг нүүрлүү болон арлуу зөөх боломжтой. Апп нь энийг таны оролцоогүйгээр хийж болзошгүй",
        "permdesc_requestDeletePackages": "Апп-д багц устгах хүсэлт тавихыг зөвшөөрнө.",
        "permdesc_requestIgnoreBatteryOptimizations": "Тухайн аппaaс батерейны оновчлол алгасах зөвшөөрөл асуухыг зөвшөөрдөг.",
        "permdesc_requestInstallPackages": "Аппликейшн нь багц суулгахыг хүсэх боломжтой.",
        "permdesc_requestPasswordComplexity": "Аппад дэлгэцийн түгжээний боломжтой уртын хэмжээ болон төрлийг заадаг дэлгэцийн түгжээний төвөгтэй байдлын түвшнийг (өндөр, дундаж, бага эсвэл байхгүй) мэдэж авахыг зөвшөөрдөг. Түүнчлэн, апп хэрэглэгчдэд дэлгэцийн түгжээг тодорхой түвшинд шинэчлэхийг санал болгох боломжтой хэдий ч хэрэглэгч үүнийг чөлөөтэй үл хэрэгсэж, орхих боломжтой. Дэлгэцийн түгжээг ил бичвэрээр хадгалдаггүй тул энэ апп тодорхой нууц үгийг мэддэггүй болохыг анхаарна уу.",
        "permdesc_route_media_output": "Аппликейшн нь медиа гаралтыг бусад гадаад төхөөрөмжрүү чиглүүлэх боломжтой.",
        "permdesc_runInBackground": "Энэ апп цаана ажиллах боломжтой. Энэ нь батерейг хурдан дуусгаж болзошгүй.",
        "permdesc_sdcardRead": "Аппад таны дундын хадгалах сангийн контентыг уншихыг зөвшөөрдөг.",
        "permdesc_sdcardWrite": "Аппад таны дундын хадгалах сангийн контентыг бичихийг зөвшөөрдөг.",
        "permdesc_sendSms": "Апп нь SMS мессеж илгээх боломжтой. Энэ нь санаандгүй төлбөрт оруулж болзошгүй. Хортой апп нь таны зөвшөөрөлгүйгээр мессеж илгээн таныг төлбөрт оруулж болзошгүй.",
        "permdesc_setAlarm": "Апп нь суулгагдсан сэрүүлэгний апп дээр сэрүүлэг тохируулах боломжтой. Зарим сэрүүлэгний апп нь энэ функцийг дэмжихгүй байж болзошгүй.",
        "permdesc_setInputCalibration": "Мэдрэгчтэй дэлгэцний калибрешн параметрийг өөрчлөхийг апп-д зөвшөөрнө. Энгийн апп-д шаардлагагүй.",
        "permdesc_setTimeZone": "Апп нь таблетын цагийн бүсийг солих боломжтой.",
        "permdesc_setWallpaper": "Апп нь системийн ханын зургийг тохируулах боломжтой.",
        "permdesc_setWallpaperHints": "Апп нь системийн ханын зургийн хэмжээний саналыг тохируулах боломжтой",
        "permdesc_sim_communication": "Апп-д SIM рүү комманд илгээхийг зөвшөөрнө. Энэ маш аюултай.",
        "permdesc_startReviewPermissionDecisions": "Эзэмшигчид зөвшөөрлийн шийдвэрийг хянах дэлгэцийг эхлүүлэх боломжийг олгоно. Энгийн аппуудад хэзээ ч шаардагдахгүй.",
        "permdesc_startViewAppFeatures": "Аппын онцлогуудын мэдээллийг үзэж эхлэхийг эзэмшигчид зөвшөөрдөг.",
        "permdesc_startViewPermissionUsage": "Эзэмшигчид аппын зөвшөөрлөө ашиглаж эхлэхийг зөвшөөрдөг. Энгийн аппуудад шаардлагагүй.",
        "permdesc_statusBar": "Апп нь статус самбарыг идэвхгүй болгох эсвэл систем дүрсийг нэмэх, хасах боломжтой.",
        "permdesc_statusBarService": "Апп нь статус самбар болох боломжтой.",
        "permdesc_subscribedFeedsRead": "Апп нь одоогийн синк хийгдсэн хангамжийн талаарх мэдээллийг авах боломжтой.",
        "permdesc_systemAlertWindow": "Энэ апп бусад аппын дээр эсвэл дэлгэцийн өөр хэсэгт харагдана. Энэ нь энгийн апп хэрэглээ болон бусад аппын харагдах байдлыг өөрчилж болзошгүй.",
        "permdesc_systemCamera": "Энэ хамгаалагдсан эсвэл системийн апп нь системийн камер ашиглан ямар ч үед зураг авч, видео бичих боломжтой. Мөн түүнчлэн, апп нь android.permission.CAMERA-н зөвшөөрөлтэй байх шаардлагатай",
        "permdesc_transmitIr": "Апп-д таблетын хэт улаан дамжуулагчийг ашиглахыг зөвшөөрнө.",
        "permdesc_uninstall_shortcut": "Аппликейшн нь хэрэглэгчийн оролцоогүйгээр Нүүр дэлгэцний товчлолыг устгаж чадна.",
        "permdesc_useBiometric": "Aппад биометрийн техник хангамжийг баталгаажуулалтад ашиглахыг зөвшөөрдөг",
        "permdesc_useDataInBackground": "Энэ апп цаана ажиллах боломжтой. Энэ нь датаны хэрэглээг нэмэгдүүлж болзошгүй.",
        "permdesc_useFaceAuthentication": "Аппад царайгаар тайлах техник хангамжийг баталгаажуулалтад ашиглахыг зөвшөөрдөг",
        "permdesc_useFingerprint": "Баталгаажуулалт хийх зорилгоор хурууны хээний төхөөрөмжийг ашиглах зөвшөөрлийг аппд олгодог",
        "permdesc_use_sip": "Апп-д SIP дуудлага хийх болон хүлээн авахыг зөвшөөрөх.",
        "permdesc_uwb_ranging": "Аппад ойролцоох ультра өргөн зурвасын төхөөрөмжүүдийн хоорондох холбоотой байрлалыг тодорхойлохыг зөвшөөрөх",
        "permdesc_vibrate": "Апп нь чичиргээг удирдах боломжтой.",
        "permdesc_vibrator_state": "Аппыг чичиргээний төлөвт хандахыг зөвшөөрдөг.",
        "permdesc_videoWrite": "Таны видео цуглуулгыг тохируулах зөвшөөрлийг аппад олгодог.",
        "permdesc_wakeLock": "Аппад машины дэлгэцийг асаалттай байлгахыг зөвшөөрдөг.",
        "permdesc_writeCalendar": "Энэ апп таны таблет дээр хуанлийн арга хэмжээг нэмэх, устгах, эсвэл өөрчлөх боломжтой. Энэ апп нь хуанли эзэмшигчээс зурвас илгээсэн мэт харагдах, эсвэл эзэмшигчид мэдэгдэлгүйгээр арга хэмжээг өөрчлөх боломжтой.",
        "permdesc_writeCallLog": "Апп нь таны таблетын ирсэн гарсан дуудлага зэргийг агуулсан дуудлагын логыг унших боломжтой. Хортой апп нь энийг ашиглан таны дуудлагын логыг өөрчлөх болон арилгах боломжтой.",
        "permdesc_writeContacts": "Аппад таны утсан дээр хадгалагдсан харилцагчдын өгөгдлийг өөрчлөхийг зөвшөөрнө. Энэ зөвшөөрөл нь харилцагчийн өгөгдлийг устгахыг аппуудад зөвшөөрнө.",
        "permdesc_writeGeolocationPermissions": "Апп нь Хөтчийн гео байршлын зөвшөөрлийг өөрчлөх боломжтой. Хортой апп нь энийг ашиглан дурын вэб хуудасруу байршлын мэдээллийг илгээх боломжтой.",
        "permdesc_writeHistoryBookmarks": "Апп нь таны таблет дээр хадгалагдсан Хөтчийн түүх эсвэл хавчуургыг өөрчлөх боломжтой. Энэ нь апп-д Хөтчийн датаг арилгах эсвэл өөрчлөх боломжийг олгоно. Анхаар: Энэ зөвшөөрөл нь гуравдагч талын хөтөч эсвэл вебээр хөтөчлөх чадвартай аппликейшнд ажиллахгүй байх боломжтой.",
        "permdesc_writeSettings": "Апп нь системийн тохиргооны датаг өөрчлөх боломжтой. Хортой апп нь таны системийн тохиргоог сүйтгэх боломжтой.",
        "permdesc_writeSyncSettings": "Апп нь бүртгэлийн синк тохиргоог өөрчлөх боломжтой. Жишээ нь энэ нь Хүмүүс апп бүртгэлтэй синк хийхийг идэвхжүүлэх боломжтой.",
        "permgroupdesc_activityRecognition": "таны биеийн дасгал хөдөлгөөнд хандах",
        "permgroupdesc_calendar": "Хуанли руу хандах",
        "permgroupdesc_calllog": "утасны дуудлагын жагсаалтыг унших болон бичих",
        "permgroupdesc_camera": "зураг авах, бичлэг хийх",
        "permgroupdesc_contacts": "харилцагч руугаа хандах",
        "permgroupdesc_location": "энэ төхөөрөмжийн байршилд хандалт хийх",
        "permgroupdesc_microphone": "дуу хураах",
        "permgroupdesc_nearby_devices": "ойролцоох төхөөрөмжүүдийг илрүүлж, холбогдох",
        "permgroupdesc_notifications": "мэдэгдэл харуулах",
        "permgroupdesc_phone": "утасны дуудлага хийх, дуудлага удирдах",
        "permgroupdesc_readMediaAural": "төхөөрөмж дээрээ хөгжим болон аудионд хандах",
        "permgroupdesc_readMediaVisual": "төхөөрөмж дээрээ зураг болон видеонд хандах",
        "permgroupdesc_sensors": "таны биеийн байдлын талаарх мэдрэгч бүхий өгөгдөлд нэвтрэх",
        "permgroupdesc_sms": "SMS мессежийг илгээх, харах",
        "permgroupdesc_storage": "Tөхөөрөмж дээрх зураг, медиа болон файлд хандалт хийх",
        "permgrouplab_activityRecognition": "Дасгал хөдөлгөөн",
        "permgrouplab_calendar": "Календарь",
        "permgrouplab_calllog": "Дуудлагын жагсаалт",
        "permgrouplab_camera": "Камер",
        "permgrouplab_contacts": "Харилцагчдын хаяг",
        "permgrouplab_location": "Байршил",
        "permgrouplab_microphone": "Микрофон",
        "permgrouplab_nearby_devices": "Ойролцоох төхөөрөмжүүд",
        "permgrouplab_notifications": "Мэдэгдэл",
        "permgrouplab_phone": "Утас",
        "permgrouplab_readMediaAural": "Хөгжим, аудио",
        "permgrouplab_readMediaVisual": "Зураг, видео",
        "permgrouplab_sensors": "Биеийн мэдрэгч",
        "permgrouplab_sms": "Мессеж",
        "permgrouplab_storage": "Файлууд",
        "permlab_acceptHandover": "дуудлагыг өөр аппаас үргэлжлүүлэх",
        "permlab_accessBackgroundLocation": "байршилд ард хандах",
        "permlab_accessCoarseLocation": "зөвхөн дэлгэц дээр байхад ойролцоо байршилд хандах",
        "permlab_accessDrmCertificates": "хандалтын DRM сертификат",
        "permlab_accessFineLocation": "нарийвчилсан байршилд зөвхөн нүүр хэсэгт хандах",
        "permlab_accessImsCallService": "IMS дуудлагын үйлчилгээнд хандах",
        "permlab_accessLocationExtraCommands": "байршил нийлүүлэгчийн нэмэлт тушаалд хандах",
        "permlab_accessNetworkConditions": "Сүлжээний байдлын талаар ажиглалтуудыг хүлээн авах",
        "permlab_accessNetworkState": "сүлжээний холболтыг үзэх",
        "permlab_accessNotifications": "мэдэгдэлд хандах",
        "permlab_accessWifiState": "Wi-Fi холболтыг үзэх",
        "permlab_accessWimaxState": "WiMAX-д холбогдох болон салах",
        "permlab_access_notification_policy": "Бүү саад бол тохируулгад хандалт хийх",
        "permlab_activityRecognition": "биеийн дасгал хөдөлгөөн таних",
        "permlab_addVoicemail": "дуут шуудан нэмэх",
        "permlab_answerPhoneCalls": "утасны дуудлагад хариулах",
        "permlab_audioWrite": "хөгжмийн цуглуулгаа тохируулах",
        "permlab_backgroundCamera": "ард зураг авж, видео хийх",
        "permlab_bindCarrierMessagingService": "зөөгч зурвасын үйлчилгээнд холбох",
        "permlab_bindCarrierServices": "Үүрэн холбооны үйлчилгээ үзүүлэгчтэй холбогдох",
        "permlab_bindCellBroadcastService": "Гар утсанд масс мессеж түгээх онцлогийн мессежийг шилжүүлэх",
        "permlab_bindConditionProviderService": "нөхцөл нийлүүлэгч үйлчилгээнд холбох",
        "permlab_bindDreamService": "дрийм үйлчилгээнд холбох",
        "permlab_bindNotificationListenerService": "мэдэгдэл сонсогч үйлчилгээтэй холбох",
        "permlab_bind_connection_service": "телефоны үйлчилгээтэй харилцах",
        "permlab_bind_incall_service": "дуудлагын дэлгэцтэй харьцах",
        "permlab_bluetooth": "Bluetooth төхөөрөмжтэй хос үүсгэх",
        "permlab_bluetoothAdmin": "Bluetooth тохиргоонд хандах",
        "permlab_bluetooth_advertise": "Ойролцоох Bluetooth төхөөрөмжүүдэд сурталчлах",
        "permlab_bluetooth_connect": "хослуулсан Bluetooth төхөөрөмжүүдэд холбогдох",
        "permlab_bluetooth_scan": "ойролцоох Bluetooth төхөөрөмжүүдийг илрүүлэх, хослуулах",
        "permlab_bodySensors": "биеийн мэдрэгчид хандах (зүрхний хэмнэл шалгагч г.м)",
        "permlab_bodySensors_background": "Ард нь байх үед зүрхний хэм зэрэг биеийн мэдрэгчийн өгөгдөлд хандаарай",
        "permlab_broadcastSticky": "тасардаггүй өргөн дамжууллыг илгээх",
        "permlab_callCompanionApp": "систем дэх дуудлагыг харах болон хянах.",
        "permlab_callPhone": "утасны дугаарт шууд дуудлага хийх",
        "permlab_camera": "зураг авах болон видео бичих",
        "permlab_cameraOpenCloseListener": "Аппликэйшн эсвэл үйлчилгээнд камерын төхөөрөмжүүдийг нээж эсвэл хааж байгаа тухай залгасан дуудлага хүлээн авахыг зөвшөөрөх.",
        "permlab_changeNetworkState": "сүлжээний холболтыг солих",
        "permlab_changeTetherState": "модем болгосон холболтыг солих",
        "permlab_changeWifiMulticastState": "Wi-Fi олон дамжуулалт хүлээн авахыг зөвшөөрөх",
        "permlab_changeWifiState": "Wi-Fi -тай холбогдох болон салах",
        "permlab_changeWimaxState": "WiMAX статусыг солих",
        "permlab_connection_manager": "телеком холболтуудыг удирдах.",
        "permlab_control_incall_experience": "дуудлага хийж байгаа хэрэглэгчтэй харьцах",
        "permlab_createNetworkSockets": "сүлжээнд бүрэн нэвтрэх",
        "permlab_disableKeyguard": "дэлгэцний түгжээг идэвхгүй болгох",
        "permlab_enableCarMode": "машины горимыг идэвхжүүлэх",
        "permlab_exemptFromAudioRecordRestrictions": "аудио бичих хязгаарлалтаас гаргах",
        "permlab_expandStatusBar": "статус самбарыг нээх/хаах",
        "permlab_foregroundService": "интерактив (foreground) үйлчилгээг ажиллуулах",
        "permlab_fullScreenIntent": "мэдэгдлийг түгжигдсэн төхөөрөмж дээр бүтэн дэлгэцийн үйл ажиллагаа байдлаар үзүүлэх",
        "permlab_getAccounts": "төхөөрөмж дээрх акаунтыг олох",
        "permlab_getPackageSize": "апп сангийн хэмжээг хэмжих",
        "permlab_getTasks": "ажиллаж байгаа апп-г дуудах",
        "permlab_handoverStatus": "Android Beam дамжуулалтын төлөвийг авах",
        "permlab_highSamplingRateSensors": "түүврийн өндөр хувиар мэдрэгчийн өгөгдөлд хандах",
        "permlab_imagesWrite": "зургийн цуглуулгаа тохируулах",
        "permlab_install_shortcut": "товчлол суулгах",
        "permlab_invokeCarrierSetup": "үүрэн компанийн нийлүүлсэн тохируулгын апп-г өдөөх",
        "permlab_killBackgroundProcesses": "бусад апп-г хаах",
        "permlab_manageFace": "царайгаар тайлах техник хангамжийг удирдах",
        "permlab_manageFingerprint": "хурууны хээний төхөөрөмжийг удирдах",
        "permlab_manageNetworkPolicy": "сүлжээний бодлогыг удирдах",
        "permlab_manageOngoingCalls": "Үргэлжилж буй дуудлагыг удирдах",
        "permlab_manageOwnCalls": "системээр дамжуулах дуудлага",
        "permlab_manageProfileAndDeviceOwners": "Профайл, төхөөрөмж эзэмшигчийг удирдах",
        "permlab_mediaLocation": "медиа цуглуулгаасаа байршлыг унших",
        "permlab_modifyAudioSettings": "Аудио тохиргоо солих",
        "permlab_modifyNetworkAccounting": "сүлжээний хэрэглээний тайланг өөрчлөх",
        "permlab_nearby_wifi_devices": "ойролцоох Wi-Fi төхөөрөмжүүдтэй харилцах",
        "permlab_nfc": "ойролцоо талбарын холбоог удирдах",
        "permlab_persistentActivity": "апп-г байнга ажиллуулах",
        "permlab_postNotification": "мэдэгдэл харуулах",
        "permlab_preferredPaymentInfo": "Сонгосон NFC төлбөрийн үйлчилгээний мэдээлэл",
        "permlab_processOutgoingCalls": "гарсан дуудлагыг чиглэлийг өөрчлөх",
        "permlab_queryAllPackages": "бүх багцыг лавлах",
        "permlab_readBasicPhoneState": "утасны үндсэн статус болон таних мэдээллийг уншуулна уу",
        "permlab_readCalendar": "Хуанлийн арга хэмжээ, дэлгэрэнгүйг унших",
        "permlab_readCallLog": "дуудлагын логийг унших",
        "permlab_readCellBroadcasts": "үүрэн өргөн дамжууллын мессеж унших",
        "permlab_readContacts": "өөрийн харилцагчдыг унших",
        "permlab_readHistoryBookmarks": "өөрийн Вэб хавчуурга болон түүхийг унших",
        "permlab_readInstallSessions": "Суулгах харилцан үйлдлийг унших",
        "permlab_readMediaAudio": "дундын хадгалах сангаас аудио файл унших",
        "permlab_readMediaImages": "дундын хадгалах сангаас зургийн файл унших",
        "permlab_readMediaVideo": "дундын хадгалах сангаас видео файл унших",
        "permlab_readNetworkUsageHistory": "сүлжээний ашиглалтын түүхийг унших",
        "permlab_readPhoneNumbers": "утасны дугаарыг унших",
        "permlab_readPhoneState": "утасны статус ба таниулбарыг унших",
        "permlab_readSms": "таны текст мессежийг унших(SMS эсвэл MMS)",
        "permlab_readSyncSettings": "синк тохиргоог унших",
        "permlab_readSyncStats": "синк статистикийг унших",
        "permlab_receiveBootCompleted": "Эхлэхэд ажиллуулах",
        "permlab_receiveMms": "текст мессеж(МMS) хүлээж авах",
        "permlab_receiveSms": "текст мессеж(SMS) хүлээж авах",
        "permlab_receiveWapPush": "текст мессеж(WAP) хүлээн авах",
        "permlab_recordAudio": "аудио бичих",
        "permlab_recordBackgroundAudio": "ард видео бичих",
        "permlab_register_call_provider": "шинэ телеком холболтуудыг бүртгэх",
        "permlab_register_sim_subscription": "шинэ телеком SIM холболтуудыг бүртгэх",
        "permlab_removeDrmCertificates": "DRM сертификатыг устгах",
        "permlab_reorderTasks": "ажиллаж байгаа апп-уудыг дахин эрэмбэлэх",
        "permlab_requestDeletePackages": "багцыг устгах хүсэлт",
        "permlab_requestIgnoreBatteryOptimizations": "батерейны оновчлол алгасахыг асуух",
        "permlab_requestInstallPackages": "багц суулгахыг хүсэх",
        "permlab_requestPasswordComplexity": "дэлгэцийн түгжээний төвөгтэй байдлын хүсэлт тавих",
        "permlab_route_media_output": "медиа гаралтын чиглэл",
        "permlab_runInBackground": "цаана ажиллах",
        "permlab_sdcardRead": "таны дундын хадгалах сангийн контентыг унших",
        "permlab_sdcardWrite": "дундын хадгалах сангийнхаа контентыг өөрчлөх эсвэл устгах",
        "permlab_sendSms": "SMS мессежийг илгээх, харах",
        "permlab_setAlarm": "сэрүүлэг тохируулах",
        "permlab_setInputCalibration": "оролтын төхөөрөмжийн калибрешныг өөрчлөх",
        "permlab_setTimeZone": "цагийн бүсийн тохиргоо",
        "permlab_setWallpaper": "ханын зургийг тохируулах",
        "permlab_setWallpaperHints": "Таны ханын зурагны хэмжээг тохируулах",
        "permlab_sim_communication": "SIM картад тушаал илгээх",
        "permlab_startReviewPermissionDecisions": "зөвшөөрлийн шийдвэрийг хянах дэлгэцийг эхлүүлэх",
        "permlab_startViewAppFeatures": "аппын онцлогуудыг үзэж эхлэх",
        "permlab_startViewPermissionUsage": "зөвшөөрлийн ашиглалтыг харж эхлэх",
        "permlab_statusBar": "статус самбарыг идэвхгүй болгох болон өөрчлөх",
        "permlab_statusBarService": "статусын хэсэг болох",
        "permlab_subscribedFeedsRead": "бүртгүүлсэн хангамжийг унших",
        "permlab_systemAlertWindow": "Энэ апп бусад аппын дээр харагдана",
        "permlab_systemCamera": "Видео болон зураг авахын тулд апп эсвэл үйлчилгээнд хандахыг системийн камерт зөвшөөрөх",
        "permlab_transmitIr": "хэт улаанаар дамжуулах",
        "permlab_uninstall_shortcut": "товчлолыг устгах",
        "permlab_useBiometric": "биометрийн техник хангамжийг ашиглах",
        "permlab_useDataInBackground": "датаг цаана ашиглах",
        "permlab_useFaceAuthentication": "царайгаар тайлах техник хангамж ашиглах",
        "permlab_useFingerprint": "хурууны хээний төхөөрөмж ашиглах",
        "permlab_use_sip": "SIP дуудлага хийх/хүлээн авах",
        "permlab_uwb_ranging": "ойролцоох ультра өргөн зурвасын төхөөрөмжүүдийн хоорондох холбоотой байрлалыг тодорхойлох",
        "permlab_vibrate": "чичиргээг удирдах",
        "permlab_videoWrite": "видео цуглуулгаа тохируулах",
        "permlab_wakeLock": "машины дэлгэцийг асаалттай байлгах",
        "permlab_writeCalendar": "календарын хуваарийг нэмэх эсвэл өөрчлөх болон эзэмшигчид мэдэгдэлгүйгээр зочидруу имэйл илгээх",
        "permlab_writeCallLog": "дуудлагын логруу бичих",
        "permlab_writeContacts": "таны харилцагчдыг өөрчлөх",
        "permlab_writeGeolocationPermissions": "Хөтчийн геобайршлын зөвшөөрлийг өөрчлөх",
        "permlab_writeHistoryBookmarks": "вэб хавчуурга болон түүхийг бичих",
        "permlab_writeSettings": "систем тохиргоог өөрчлөх",
        "permlab_writeSyncSettings": "синкийг унтрааж асаах тохиргоо"
    }
}
